EESchema Schematic File Version 4
EELAYER 30 0
EELAYER END
$Descr A4 11693 8268
encoding utf-8
Sheet 1 1
Title "I2S Audio Board"
Date "2022-04-22"
Rev "1.0"
Comp ""
Comment1 "Braden Aasand"
Comment2 ""
Comment3 ""
Comment4 ""
$EndDescr
$Comp
L Regulator_Linear:AP131-25 U2
U 1 1 6210233E
P 8450 1050
F 0 "U2" H 8450 1392 50  0000 C CNN
F 1 "AP3428A" H 8450 1301 50  0000 C CNN
F 2 "Package_TO_SOT_SMD:TSOT-23-5" H 8450 1375 50  0001 C CNN
F 3 "https://www.diodes.com/assets/Datasheets/AP2127.pdf" H 8450 1150 50  0001 C CNN
	1    8450 1050
	1    0    0    -1  
$EndComp
$Comp
L Device:L_Small L1
U 1 1 62102471
P 9000 950
F 0 "L1" V 9185 950 50  0000 C CNN
F 1 "2.2uH" V 9094 950 50  0000 C CNN
F 2 "MyInductors:NRS4018T2R2MDGJ" H 9000 950 50  0001 C CNN
F 3 "~" H 9000 950 50  0001 C CNN
	1    9000 950 
	0    -1   -1   0   
$EndComp
$Comp
L Device:C_Small C18
U 1 1 62102519
P 10050 1050
F 0 "C18" H 10142 1096 50  0000 L CNN
F 1 "10uF" H 10142 1005 50  0000 L CNN
F 2 "Capacitor_SMD:C_0402_1005Metric" H 10050 1050 50  0001 C CNN
F 3 "~" H 10050 1050 50  0001 C CNN
	1    10050 1050
	1    0    0    -1  
$EndComp
$Comp
L Device:C_Small C15
U 1 1 62102569
P 9200 1050
F 0 "C15" H 9292 1096 50  0000 L CNN
F 1 "22pF" H 9292 1005 50  0000 L CNN
F 2 "Capacitor_SMD:C_0402_1005Metric" H 9200 1050 50  0001 C CNN
F 3 "~" H 9200 1050 50  0001 C CNN
	1    9200 1050
	1    0    0    -1  
$EndComp
$Comp
L Device:C_Small C13
U 1 1 621025D9
P 7650 1050
F 0 "C13" H 7742 1096 50  0000 L CNN
F 1 "1uF" H 7742 1005 50  0000 L CNN
F 2 "Capacitor_SMD:C_0402_1005Metric" H 7650 1050 50  0001 C CNN
F 3 "~" H 7650 1050 50  0001 C CNN
	1    7650 1050
	1    0    0    -1  
$EndComp
$Comp
L Device:R_Small_US R3
U 1 1 62102748
P 9650 1050
F 0 "R3" H 9582 1004 50  0000 R CNN
F 1 "430K" H 9582 1095 50  0000 R CNN
F 2 "Resistor_SMD:R_0402_1005Metric" H 9650 1050 50  0001 C CNN
F 3 "~" H 9650 1050 50  0001 C CNN
	1    9650 1050
	-1   0    0    1   
$EndComp
$Comp
L Device:R_Small_US R4
U 1 1 621027BC
P 9650 1250
F 0 "R4" H 9582 1204 50  0000 R CNN
F 1 "100K" H 9582 1295 50  0000 R CNN
F 2 "Resistor_SMD:R_0402_1005Metric" H 9650 1250 50  0001 C CNN
F 3 "~" H 9650 1250 50  0001 C CNN
	1    9650 1250
	-1   0    0    1   
$EndComp
Wire Wire Line
	9100 950  9200 950 
Wire Wire Line
	9200 950  9650 950 
Connection ~ 9200 950 
Wire Wire Line
	9200 1150 9650 1150
Connection ~ 9650 1150
Wire Wire Line
	10050 1350 10050 1150
Wire Wire Line
	8750 1050 9000 1050
Wire Wire Line
	9000 1050 9000 1150
Wire Wire Line
	9000 1150 9200 1150
Connection ~ 9200 1150
$Comp
L power:GND #PWR014
U 1 1 621030F2
P 8450 1400
F 0 "#PWR014" H 8450 1150 50  0001 C CNN
F 1 "GND" H 8455 1227 50  0000 C CNN
F 2 "" H 8450 1400 50  0001 C CNN
F 3 "" H 8450 1400 50  0001 C CNN
	1    8450 1400
	1    0    0    -1  
$EndComp
$Comp
L power:GND #PWR016
U 1 1 62103136
P 9650 1400
F 0 "#PWR016" H 9650 1150 50  0001 C CNN
F 1 "GND" H 9655 1227 50  0000 C CNN
F 2 "" H 9650 1400 50  0001 C CNN
F 3 "" H 9650 1400 50  0001 C CNN
	1    9650 1400
	1    0    0    -1  
$EndComp
Wire Wire Line
	8450 1350 8450 1400
Wire Wire Line
	8150 1050 8000 1050
Wire Wire Line
	8000 1050 8000 950 
Connection ~ 8000 950 
Wire Wire Line
	8000 950  8150 950 
Wire Wire Line
	7650 950  8000 950 
Wire Wire Line
	7650 1150 7650 1350
Wire Wire Line
	7650 1350 8450 1350
Connection ~ 8450 1350
$Comp
L Connector:USB_B_Micro J4
U 1 1 621040C3
P 6750 1150
F 0 "J4" H 6805 1617 50  0000 C CNN
F 1 "USB_B_Micro" H 6805 1526 50  0000 C CNN
F 2 "MICRO-USB-B-AMPHENOL:USB_MicroB" H 6900 1100 50  0001 C CNN
F 3 "~" H 6900 1100 50  0001 C CNN
	1    6750 1150
	1    0    0    -1  
$EndComp
Connection ~ 7650 950 
$Comp
L power:GND #PWR012
U 1 1 62104382
P 6700 1650
F 0 "#PWR012" H 6700 1400 50  0001 C CNN
F 1 "GND" H 6705 1477 50  0000 C CNN
F 2 "" H 6700 1650 50  0001 C CNN
F 3 "" H 6700 1650 50  0001 C CNN
	1    6700 1650
	1    0    0    -1  
$EndComp
$Comp
L Device:C_Small C8
U 1 1 62105055
P 6200 3800
F 0 "C8" H 6292 3846 50  0000 L CNN
F 1 "1uF" H 6292 3755 50  0000 L CNN
F 2 "Capacitor_SMD:C_0402_1005Metric" H 6200 3800 50  0001 C CNN
F 3 "~" H 6200 3800 50  0001 C CNN
	1    6200 3800
	1    0    0    -1  
$EndComp
$Comp
L Device:C_Small C3
U 1 1 621053F5
P 3350 5000
F 0 "C3" H 3400 5050 50  0000 L CNN
F 1 "10uF" H 3400 4950 50  0000 L CNN
F 2 "Capacitor_SMD:C_0402_1005Metric" H 3350 5000 50  0001 C CNN
F 3 "~" H 3350 5000 50  0001 C CNN
	1    3350 5000
	1    0    0    -1  
$EndComp
$Comp
L Device:C_Small C6
U 1 1 62105790
P 5850 3850
F 0 "C6" H 5942 3896 50  0000 L CNN
F 1 "2.2uF" H 5942 3805 50  0000 L CNN
F 2 "Capacitor_SMD:C_0402_1005Metric" H 5850 3850 50  0001 C CNN
F 3 "~" H 5850 3850 50  0001 C CNN
	1    5850 3850
	1    0    0    -1  
$EndComp
$Comp
L LM49450:LM49450 U1
U 1 1 6210CF8C
P 3800 2850
F 0 "U1" H 4700 3237 60  0000 C CNN
F 1 "LM49450" H 4700 3131 60  0000 C CNN
F 2 "Package_DFN_QFN:WQFN-32-1EP_5x5mm_P0.5mm_EP3.1x3.1mm" H 4700 3150 60  0001 C CNN
F 3 "" H 4100 2800 60  0000 C CNN
	1    3800 2850
	1    0    0    -1  
$EndComp
$Comp
L Device:C_Small C17
U 1 1 62117050
P 9650 2050
F 0 "C17" H 9742 2096 50  0000 L CNN
F 1 "10uF" H 9742 2005 50  0000 L CNN
F 2 "Capacitor_SMD:C_0402_1005Metric" H 9650 2050 50  0001 C CNN
F 3 "~" H 9650 2050 50  0001 C CNN
	1    9650 2050
	1    0    0    -1  
$EndComp
$Comp
L Device:C_Small C16
U 1 1 62117057
P 9200 2050
F 0 "C16" H 9292 2096 50  0000 L CNN
F 1 "1uF" H 9292 2005 50  0000 L CNN
F 2 "Capacitor_SMD:C_0402_1005Metric" H 9200 2050 50  0001 C CNN
F 3 "~" H 9200 2050 50  0001 C CNN
	1    9200 2050
	1    0    0    -1  
$EndComp
$Comp
L Device:C_Small C14
U 1 1 6211705E
P 7650 2050
F 0 "C14" H 7742 2096 50  0000 L CNN
F 1 "1uF" H 7742 2005 50  0000 L CNN
F 2 "Capacitor_SMD:C_0402_1005Metric" H 7650 2050 50  0001 C CNN
F 3 "~" H 7650 2050 50  0001 C CNN
	1    7650 2050
	1    0    0    -1  
$EndComp
$Comp
L power:GND #PWR015
U 1 1 62117083
P 8450 2400
F 0 "#PWR015" H 8450 2150 50  0001 C CNN
F 1 "GND" H 8455 2227 50  0000 C CNN
F 2 "" H 8450 2400 50  0001 C CNN
F 3 "" H 8450 2400 50  0001 C CNN
	1    8450 2400
	1    0    0    -1  
$EndComp
$Comp
L power:GND #PWR018
U 1 1 62117089
P 9650 2400
F 0 "#PWR018" H 9650 2150 50  0001 C CNN
F 1 "GND" H 9655 2227 50  0000 C CNN
F 2 "" H 9650 2400 50  0001 C CNN
F 3 "" H 9650 2400 50  0001 C CNN
	1    9650 2400
	1    0    0    -1  
$EndComp
Wire Wire Line
	8450 2350 8450 2400
Wire Wire Line
	7650 2150 7650 2350
Wire Wire Line
	7650 2350 8450 2350
$Comp
L power:+2V5 #PWR017
U 1 1 6211EC48
P 9650 1950
F 0 "#PWR017" H 9650 1800 50  0001 C CNN
F 1 "+2V5" H 9665 2123 50  0000 C CNN
F 2 "" H 9650 1950 50  0001 C CNN
F 3 "" H 9650 1950 50  0001 C CNN
	1    9650 1950
	1    0    0    -1  
$EndComp
Text Notes 8600 6350 0    79   ~ 0
Vdd/LSVdd     2.7V-5.5V\nCPVdd/HPVdd  1.8V-2.7V\nDVdd           2.7V-4.5V\nIOVdd          1.8V-4.5V
$Comp
L power:+2V5 #PWR09
U 1 1 621204B6
P 6200 3600
F 0 "#PWR09" H 6200 3450 50  0001 C CNN
F 1 "+2V5" H 6215 3773 50  0000 C CNN
F 2 "" H 6200 3600 50  0001 C CNN
F 3 "" H 6200 3600 50  0001 C CNN
	1    6200 3600
	1    0    0    -1  
$EndComp
$Comp
L power:GND #PWR010
U 1 1 62127BE8
P 6200 4050
F 0 "#PWR010" H 6200 3800 50  0001 C CNN
F 1 "GND" H 6205 3877 50  0000 C CNN
F 2 "" H 6200 4050 50  0001 C CNN
F 3 "" H 6200 4050 50  0001 C CNN
	1    6200 4050
	1    0    0    -1  
$EndComp
Wire Wire Line
	5600 4050 5650 4050
Wire Wire Line
	5600 4150 5750 4150
Wire Wire Line
	5750 4150 5750 4050
Connection ~ 5750 4050
$Comp
L power:GND #PWR06
U 1 1 6212BBFF
P 5800 5500
F 0 "#PWR06" H 5800 5250 50  0001 C CNN
F 1 "GND" H 5805 5327 50  0000 C CNN
F 2 "" H 5800 5500 50  0001 C CNN
F 3 "" H 5800 5500 50  0001 C CNN
	1    5800 5500
	1    0    0    -1  
$EndComp
Wire Wire Line
	6200 3900 6200 4050
$Comp
L Device:C_Small C2
U 1 1 6213B10E
P 3000 5000
F 0 "C2" H 3050 5100 50  0000 L CNN
F 1 "10uF" H 3050 4950 50  0000 L CNN
F 2 "Capacitor_SMD:C_0402_1005Metric" H 3000 5000 50  0001 C CNN
F 3 "~" H 3000 5000 50  0001 C CNN
	1    3000 5000
	1    0    0    -1  
$EndComp
$Comp
L Device:C_Small C5
U 1 1 6213CCC9
P 4250 6050
F 0 "C5" V 4300 6100 50  0000 L CNN
F 1 "2.2uF" V 4400 6000 50  0000 L CNN
F 2 "Capacitor_SMD:C_0402_1005Metric" H 4250 6050 50  0001 C CNN
F 3 "~" H 4250 6050 50  0001 C CNN
	1    4250 6050
	0    1    1    0   
$EndComp
Wire Wire Line
	4350 5800 4350 6050
Wire Wire Line
	4150 6050 4150 5800
Wire Wire Line
	4150 5800 4200 5800
$Comp
L power:GND #PWR03
U 1 1 6214A737
P 3250 5200
F 0 "#PWR03" H 3250 4950 50  0001 C CNN
F 1 "GND" H 3255 5027 50  0000 C CNN
F 2 "" H 3250 5200 50  0001 C CNN
F 3 "" H 3250 5200 50  0001 C CNN
	1    3250 5200
	1    0    0    -1  
$EndComp
Wire Wire Line
	5600 3950 5650 3950
Wire Wire Line
	5650 3950 5650 4050
Connection ~ 5650 4050
Wire Wire Line
	5650 4050 5750 4050
Wire Wire Line
	5600 3600 5750 3600
Wire Wire Line
	6200 3600 6200 3700
Connection ~ 6200 3600
Wire Wire Line
	5600 3500 5750 3500
Wire Wire Line
	5750 3500 5750 3600
Connection ~ 5750 3600
Wire Wire Line
	5750 3600 6200 3600
Connection ~ 6200 4050
Wire Wire Line
	5750 4050 5850 4050
$Comp
L Device:C_Small C9
U 1 1 6216521A
P 6550 3300
F 0 "C9" H 6642 3346 50  0000 L CNN
F 1 "1uF" H 6642 3255 50  0000 L CNN
F 2 "Capacitor_SMD:C_0402_1005Metric" H 6550 3300 50  0001 C CNN
F 3 "~" H 6550 3300 50  0001 C CNN
	1    6550 3300
	1    0    0    -1  
$EndComp
$Comp
L Device:C_Small C10
U 1 1 62162C81
P 6900 3300
F 0 "C10" H 6992 3346 50  0000 L CNN
F 1 "1uF" H 6992 3255 50  0000 L CNN
F 2 "Capacitor_SMD:C_0402_1005Metric" H 6900 3300 50  0001 C CNN
F 3 "~" H 6900 3300 50  0001 C CNN
	1    6900 3300
	1    0    0    -1  
$EndComp
Wire Wire Line
	6900 3000 6900 3200
$Comp
L power:GND #PWR013
U 1 1 6217B921
P 6750 3450
F 0 "#PWR013" H 6750 3200 50  0001 C CNN
F 1 "GND" H 6755 3277 50  0000 C CNN
F 2 "" H 6750 3450 50  0001 C CNN
F 3 "" H 6750 3450 50  0001 C CNN
	1    6750 3450
	1    0    0    -1  
$EndComp
Wire Wire Line
	6550 3400 6550 3450
Wire Wire Line
	6550 3450 6750 3450
Wire Wire Line
	6900 3400 6900 3450
Wire Wire Line
	6900 3450 6750 3450
Connection ~ 6750 3450
$Comp
L Device:R_Small_US R2
U 1 1 6218113F
P 3150 4000
F 0 "R2" H 3218 4046 50  0000 L CNN
F 1 "2.2K" H 3218 3955 50  0000 L CNN
F 2 "Resistor_SMD:R_0402_1005Metric" H 3150 4000 50  0001 C CNN
F 3 "~" H 3150 4000 50  0001 C CNN
	1    3150 4000
	1    0    0    -1  
$EndComp
$Comp
L Device:R_Small_US R1
U 1 1 621811FC
P 2600 4000
F 0 "R1" H 2668 4046 50  0000 L CNN
F 1 "2.2K" H 2668 3955 50  0000 L CNN
F 2 "Resistor_SMD:R_0402_1005Metric" H 2600 4000 50  0001 C CNN
F 3 "~" H 2600 4000 50  0001 C CNN
	1    2600 4000
	1    0    0    -1  
$EndComp
Wire Wire Line
	3800 4250 2600 4250
Wire Wire Line
	2600 4250 2600 4100
Wire Wire Line
	3800 4050 3450 4050
Wire Wire Line
	3450 4050 3450 4100
Wire Wire Line
	3450 4100 3150 4100
Wire Wire Line
	7650 1950 7500 1950
Connection ~ 7650 1950
$Comp
L Connector_Generic:Conn_01x05 J2
U 1 1 621A1E80
P 3250 3150
F 0 "J2" H 3400 3150 50  0000 C CNN
F 1 "Conn_01x05" H 3550 3050 50  0000 C CNN
F 2 "Connector_PinHeader_2.54mm:PinHeader_1x05_P2.54mm_Vertical" H 3250 3150 50  0001 C CNN
F 3 "~" H 3250 3150 50  0001 C CNN
	1    3250 3150
	-1   0    0    1   
$EndComp
Wire Wire Line
	3800 3350 3450 3350
Wire Wire Line
	3450 3250 3800 3250
Wire Wire Line
	3800 3150 3450 3150
Wire Wire Line
	3450 3050 3800 3050
$Comp
L Connector_Generic:Conn_01x03 J3
U 1 1 621B0F2D
P 1600 3100
F 0 "J3" H 1700 3100 50  0000 C CNN
F 1 "Conn_01x03" H 1900 3000 50  0000 C CNN
F 2 "Connector_PinHeader_2.54mm:PinHeader_1x03_P2.54mm_Vertical" H 1600 3100 50  0001 C CNN
F 3 "~" H 1600 3100 50  0001 C CNN
	1    1600 3100
	-1   0    0    1   
$EndComp
$Comp
L power:GND #PWR04
U 1 1 621B8F4D
P 3650 2900
F 0 "#PWR04" H 3650 2650 50  0001 C CNN
F 1 "GND" H 3800 2850 50  0000 C CNN
F 2 "" H 3650 2900 50  0001 C CNN
F 3 "" H 3650 2900 50  0001 C CNN
	1    3650 2900
	1    0    0    -1  
$EndComp
$Comp
L power:GND #PWR05
U 1 1 621B8FA5
P 1800 2850
F 0 "#PWR05" H 1800 2600 50  0001 C CNN
F 1 "GND" H 1950 2800 50  0000 C CNN
F 2 "" H 1800 2850 50  0001 C CNN
F 3 "" H 1800 2850 50  0001 C CNN
	1    1800 2850
	-1   0    0    1   
$EndComp
Wire Wire Line
	3450 2950 3550 2950
Wire Wire Line
	3550 2950 3550 2900
Wire Wire Line
	3550 2900 3650 2900
$Comp
L Regulator_Linear:MIC5205-2.5YM5 U3
U 1 1 6211F692
P 8450 2050
F 0 "U3" H 8450 2417 50  0000 C CNN
F 1 "MIC5305-2.5" H 8450 2326 50  0000 C CNN
F 2 "Package_TO_SOT_SMD:TSOT-23-5" H 8600 1650 50  0001 C CNN
F 3 "http://ww1.microchip.com/downloads/en/DeviceDoc/mic5353.pdf" H 8700 2150 50  0001 C CNN
	1    8450 2050
	1    0    0    -1  
$EndComp
Wire Wire Line
	9200 1950 9650 1950
Wire Wire Line
	9200 2150 9650 2150
Wire Wire Line
	7650 1950 8000 1950
Wire Wire Line
	8750 1950 9200 1950
Connection ~ 9200 1950
Connection ~ 9200 2150
Connection ~ 9650 1950
Wire Wire Line
	9650 2150 9650 2400
Connection ~ 9650 2150
Connection ~ 8450 2350
Wire Wire Line
	8150 2050 8000 2050
Wire Wire Line
	8000 2050 8000 1950
Connection ~ 8000 1950
Wire Wire Line
	8000 1950 8150 1950
Wire Wire Line
	8750 2150 8750 2050
Wire Wire Line
	8750 2150 9200 2150
$Comp
L SJ1-3524NG:SJ1-3524NG J5
U 1 1 6211F510
P 6800 5200
F 0 "J5" H 6905 5567 50  0000 C CNN
F 1 "SJ1-3524NG" H 6905 5476 50  0000 C CNN
F 2 "SJ1-3524NG:CUI_SJ1-3524NG" H 6800 5200 50  0001 L BNN
F 3 "" H 6800 5200 50  0001 L BNN
F 4 "Manufacturer recommendation" H 6800 5200 50  0001 L BNN "STANDARD"
F 5 "CUI" H 6800 5200 50  0001 L BNN "MANUFACTURER"
F 6 "1.01" H 6800 5200 50  0001 L BNN "PARTREV"
	1    6800 5200
	-1   0    0    1   
$EndComp
Wire Wire Line
	6200 5200 5950 5200
Wire Wire Line
	5950 5200 5950 5100
Wire Wire Line
	5950 5100 5600 5100
Wire Wire Line
	6200 5100 6050 5100
Wire Wire Line
	6050 5100 6050 5250
Wire Wire Line
	6050 5250 5600 5250
Wire Wire Line
	6200 5000 5600 5000
Wire Wire Line
	6500 4250 5600 4250
Wire Wire Line
	5600 4250 5600 4350
Wire Wire Line
	5600 4450 6400 4450
Wire Wire Line
	6400 4450 6400 4650
Wire Wire Line
	6400 4650 6500 4650
Wire Wire Line
	6950 4800 5600 4800
Wire Wire Line
	5600 4800 5600 4750
Wire Wire Line
	5600 4650 5650 4650
Wire Wire Line
	5650 4650 5650 4700
Wire Wire Line
	5650 4700 6850 4700
Wire Wire Line
	6850 4700 6850 4400
$Comp
L Connector_Generic:Conn_01x03 J1
U 1 1 621B051B
P 2100 4250
F 0 "J1" H 2020 3925 50  0000 C CNN
F 1 "Conn_01x03" H 2020 4016 50  0000 C CNN
F 2 "Connector_PinHeader_2.54mm:PinHeader_1x03_P2.54mm_Vertical" H 2100 4250 50  0001 C CNN
F 3 "~" H 2100 4250 50  0001 C CNN
	1    2100 4250
	-1   0    0    1   
$EndComp
Wire Wire Line
	2600 4250 2300 4250
Connection ~ 2600 4250
Wire Wire Line
	3150 4100 2900 4100
Wire Wire Line
	2900 4100 2900 4150
Wire Wire Line
	2900 4150 2300 4150
Connection ~ 3150 4100
$Comp
L power:GND #PWR01
U 1 1 621CB8A3
P 2300 4450
F 0 "#PWR01" H 2300 4200 50  0001 C CNN
F 1 "GND" H 2305 4277 50  0000 C CNN
F 2 "" H 2300 4450 50  0001 C CNN
F 3 "" H 2300 4450 50  0001 C CNN
	1    2300 4450
	1    0    0    -1  
$EndComp
Wire Wire Line
	2300 4350 2300 4450
$Comp
L Device:C_Small C1
U 1 1 6215F5C9
P 2800 5000
F 0 "C1" H 2650 5100 50  0000 L CNN
F 1 "1uF" H 2600 4950 50  0000 L CNN
F 2 "Capacitor_SMD:C_0402_1005Metric" H 2800 5000 50  0001 C CNN
F 3 "~" H 2800 5000 50  0001 C CNN
	1    2800 5000
	1    0    0    -1  
$EndComp
$Comp
L Device:C_Small C4
U 1 1 62165044
P 3650 5000
F 0 "C4" H 3742 5046 50  0000 L CNN
F 1 "1uF" H 3742 4955 50  0000 L CNN
F 2 "Capacitor_SMD:C_0402_1005Metric" H 3650 5000 50  0001 C CNN
F 3 "~" H 3650 5000 50  0001 C CNN
	1    3650 5000
	1    0    0    -1  
$EndComp
Wire Wire Line
	3800 4900 3650 4900
Wire Wire Line
	3650 4900 3350 4900
Connection ~ 3650 4900
Wire Wire Line
	3800 4700 2900 4700
Wire Wire Line
	2900 4700 2900 4900
Wire Wire Line
	2900 4900 3000 4900
Wire Wire Line
	2800 4900 2900 4900
Connection ~ 2900 4900
Wire Wire Line
	2800 5100 2900 5100
Wire Wire Line
	3350 5100 3500 5100
Wire Wire Line
	3500 5100 3500 5200
Wire Wire Line
	3500 5200 3250 5200
Connection ~ 3500 5100
Wire Wire Line
	3500 5100 3650 5100
Wire Wire Line
	3250 5200 2900 5200
Wire Wire Line
	2900 5200 2900 5100
Connection ~ 3250 5200
Connection ~ 2900 5100
Wire Wire Line
	2900 5100 3000 5100
$Comp
L Device:C_Small C11
U 1 1 621B14CD
P 7450 1050
F 0 "C11" H 7300 1100 50  0000 L CNN
F 1 "10uF" H 7200 1000 50  0000 L CNN
F 2 "Capacitor_SMD:C_0402_1005Metric" H 7450 1050 50  0001 C CNN
F 3 "~" H 7450 1050 50  0001 C CNN
	1    7450 1050
	1    0    0    -1  
$EndComp
$Comp
L Device:C_Small C12
U 1 1 621B7F22
P 7500 2050
F 0 "C12" H 7350 2100 50  0000 L CNN
F 1 "10uF" H 7250 2000 50  0000 L CNN
F 2 "Capacitor_SMD:C_0402_1005Metric" H 7500 2050 50  0001 C CNN
F 3 "~" H 7500 2050 50  0001 C CNN
	1    7500 2050
	1    0    0    -1  
$EndComp
Wire Wire Line
	7050 950  7150 950 
Wire Wire Line
	7500 2150 7500 2350
Wire Wire Line
	7500 2350 7650 2350
Connection ~ 7650 2350
Connection ~ 7450 950 
Wire Wire Line
	7450 950  7650 950 
Wire Wire Line
	7450 1150 7450 1350
Wire Wire Line
	7450 1350 7650 1350
Connection ~ 7650 1350
Wire Wire Line
	7500 1950 7500 1550
Wire Wire Line
	7500 1550 7150 1550
Wire Wire Line
	7150 1550 7150 950 
Connection ~ 7500 1950
Connection ~ 7150 950 
Wire Wire Line
	7150 950  7450 950 
Wire Wire Line
	5600 2800 5600 2500
$Comp
L power:GND #PWR08
U 1 1 6221146B
P 5950 2750
F 0 "#PWR08" H 5950 2500 50  0001 C CNN
F 1 "GND" H 5955 2577 50  0000 C CNN
F 2 "" H 5950 2750 50  0001 C CNN
F 3 "" H 5950 2750 50  0001 C CNN
	1    5950 2750
	1    0    0    -1  
$EndComp
Wire Wire Line
	5600 2900 5600 2800
Connection ~ 5600 2800
$Comp
L Device:C_Small C7
U 1 1 621D7E8A
P 5950 2600
F 0 "C7" H 6042 2646 50  0000 L CNN
F 1 "1uF" H 6042 2555 50  0000 L CNN
F 2 "Capacitor_SMD:C_0402_1005Metric" H 5950 2600 50  0001 C CNN
F 3 "~" H 5950 2600 50  0001 C CNN
	1    5950 2600
	1    0    0    -1  
$EndComp
Wire Wire Line
	5600 2500 5950 2500
Wire Wire Line
	5950 2450 5950 2500
Connection ~ 5950 2500
Wire Wire Line
	5950 2750 5950 2700
Wire Wire Line
	9650 950  10050 950 
Connection ~ 9650 950 
Wire Wire Line
	5800 3200 6550 3200
Wire Wire Line
	5600 3200 5800 3200
Connection ~ 5800 3200
Wire Wire Line
	5800 3000 6900 3000
Wire Wire Line
	5600 3000 5800 3000
Connection ~ 5800 3000
Wire Wire Line
	5800 3100 6400 3100
Wire Wire Line
	5800 3100 5800 3000
Wire Wire Line
	5800 3200 5800 3100
Connection ~ 5800 3100
Wire Wire Line
	5800 3100 5600 3100
Wire Wire Line
	6400 3100 6400 2750
Wire Wire Line
	5850 3950 5850 4050
Connection ~ 5850 4050
Wire Wire Line
	5850 4050 6200 4050
Wire Wire Line
	5750 3850 5750 3950
Wire Wire Line
	5750 3950 5850 3950
Connection ~ 5850 3950
$Comp
L power:+3V3 #PWR019
U 1 1 621DF53C
P 10050 900
F 0 "#PWR019" H 10050 750 50  0001 C CNN
F 1 "+3V3" H 10065 1073 50  0000 C CNN
F 2 "" H 10050 900 50  0001 C CNN
F 3 "" H 10050 900 50  0001 C CNN
	1    10050 900 
	1    0    0    -1  
$EndComp
$Comp
L power:+3V3 #PWR07
U 1 1 621DF6CA
P 5950 2450
F 0 "#PWR07" H 5950 2300 50  0001 C CNN
F 1 "+3V3" H 5965 2623 50  0000 C CNN
F 2 "" H 5950 2450 50  0001 C CNN
F 3 "" H 5950 2450 50  0001 C CNN
	1    5950 2450
	1    0    0    -1  
$EndComp
$Comp
L power:+3V3 #PWR011
U 1 1 621DF964
P 6400 2750
F 0 "#PWR011" H 6400 2600 50  0001 C CNN
F 1 "+3V3" H 6415 2923 50  0000 C CNN
F 2 "" H 6400 2750 50  0001 C CNN
F 3 "" H 6400 2750 50  0001 C CNN
	1    6400 2750
	1    0    0    -1  
$EndComp
Wire Wire Line
	8750 950  8900 950 
Wire Wire Line
	10050 900  10050 950 
Connection ~ 10050 950 
Wire Wire Line
	9650 1400 9650 1350
Wire Wire Line
	10050 1350 9650 1350
Connection ~ 9650 1350
Wire Wire Line
	6200 5300 5800 5300
Wire Wire Line
	5600 5300 5600 5400
Wire Wire Line
	5800 5500 5800 5300
Connection ~ 5800 5300
Wire Wire Line
	5800 5300 5600 5300
Wire Wire Line
	6650 1550 6650 1650
Wire Wire Line
	6650 1650 6700 1650
Wire Wire Line
	6750 1550 6750 1650
Wire Wire Line
	6750 1650 6700 1650
Connection ~ 6700 1650
NoConn ~ 7050 1150
NoConn ~ 7050 1250
NoConn ~ 7050 1350
Wire Wire Line
	5600 3850 5750 3850
Wire Wire Line
	5600 3750 5850 3750
$Comp
L power:+3V3 #PWR0101
U 1 1 6232F1EC
P 2600 3900
F 0 "#PWR0101" H 2600 3750 50  0001 C CNN
F 1 "+3V3" H 2615 4073 50  0000 C CNN
F 2 "" H 2600 3900 50  0001 C CNN
F 3 "" H 2600 3900 50  0001 C CNN
	1    2600 3900
	1    0    0    -1  
$EndComp
$Comp
L power:PWR_FLAG #FLG0101
U 1 1 621E5214
P 10850 900
F 0 "#FLG0101" H 10850 975 50  0001 C CNN
F 1 "PWR_FLAG" H 10850 1073 50  0000 C CNN
F 2 "" H 10850 900 50  0001 C CNN
F 3 "~" H 10850 900 50  0001 C CNN
	1    10850 900 
	1    0    0    -1  
$EndComp
$Comp
L power:+3V3 #PWR0102
U 1 1 621E5D7F
P 10850 1050
F 0 "#PWR0102" H 10850 900 50  0001 C CNN
F 1 "+3V3" H 10865 1223 50  0000 C CNN
F 2 "" H 10850 1050 50  0001 C CNN
F 3 "" H 10850 1050 50  0001 C CNN
	1    10850 1050
	-1   0    0    1   
$EndComp
Wire Wire Line
	10850 900  10850 1050
$Comp
L CMS-15113-078S-67:CMS-15113-078S-67 RS1
U 1 1 625F4196
P 6950 4600
F 0 "RS1" H 7200 4550 50  0000 R CNN
F 1 "CMS-15113-078S-67" H 7950 4750 50  0000 R CNN
F 2 "SPKR_CMS-15113-078S-67" H 6950 4600 50  0001 L BNN
F 3 "" H 6950 4600 50  0001 L BNN
F 4 "1.0" H 6950 4600 50  0001 L BNN "PARTREV"
F 5 "Manufacturer Recommendations" H 6950 4600 50  0001 L BNN "STANDARD"
F 6 "CUI Inc" H 6950 4600 50  0001 L BNN "MANUFACTURER"
	1    6950 4600
	1    0    0    1   
$EndComp
Wire Wire Line
	6850 4400 6950 4400
$Comp
L CMS-15113-078S-67:CMS-15113-078S-67 LS1
U 1 1 625EC055
P 6500 4450
F 0 "LS1" H 6605 4496 50  0000 L CNN
F 1 "CMS-15113-078S-67" H 6600 4600 50  0000 L CNN
F 2 "SPKR_CMS-15113-078S-67" H 6500 4450 50  0001 L BNN
F 3 "" H 6500 4450 50  0001 L BNN
F 4 "1.0" H 6500 4450 50  0001 L BNN "PARTREV"
F 5 "Manufacturer Recommendations" H 6500 4450 50  0001 L BNN "STANDARD"
F 6 "CUI Inc" H 6500 4450 50  0001 L BNN "MANUFACTURER"
	1    6500 4450
	1    0    0    -1  
$EndComp
$Comp
L Device:C C20
U 1 1 6265ED8C
P 2100 3300
F 0 "C20" V 2250 3150 50  0000 C CNN
F 1 "1uF" V 2150 3150 50  0000 C CNN
F 2 "Capacitor_SMD:C_0402_1005Metric" H 2138 3150 50  0001 C CNN
F 3 "~" H 2100 3300 50  0001 C CNN
	1    2100 3300
	0    1    1    0   
$EndComp
$Comp
L Device:R_Small_US R6
U 1 1 6265F875
P 2300 3400
F 0 "R6" H 2368 3446 50  0000 L CNN
F 1 "20K" H 2368 3355 50  0000 L CNN
F 2 "Resistor_SMD:R_0402_1005Metric" H 2300 3400 50  0001 C CNN
F 3 "~" H 2300 3400 50  0001 C CNN
	1    2300 3400
	1    0    0    -1  
$EndComp
Connection ~ 2600 3900
Wire Wire Line
	2600 3900 3150 3900
$Comp
L Device:C C19
U 1 1 626A6785
P 2100 2950
F 0 "C19" V 2050 2850 50  0000 C CNN
F 1 "1uF" V 1950 2850 50  0000 C CNN
F 2 "Capacitor_SMD:C_0402_1005Metric" H 2138 2800 50  0001 C CNN
F 3 "~" H 2100 2950 50  0001 C CNN
	1    2100 2950
	0    1    1    0   
$EndComp
$Comp
L Device:R_Small_US R5
U 1 1 626A678B
P 2300 3050
F 0 "R5" H 2368 3096 50  0000 L CNN
F 1 "20K" H 2368 3005 50  0000 L CNN
F 2 "Resistor_SMD:R_0402_1005Metric" H 2300 3050 50  0001 C CNN
F 3 "~" H 2300 3050 50  0001 C CNN
	1    2300 3050
	1    0    0    -1  
$EndComp
Wire Wire Line
	1800 3200 1950 3200
Wire Wire Line
	1950 3200 1950 3300
$Comp
L power:GND #PWR0103
U 1 1 626D4EF8
P 2350 3150
F 0 "#PWR0103" H 2350 2900 50  0001 C CNN
F 1 "GND" H 2500 3100 50  0000 C CNN
F 2 "" H 2350 3150 50  0001 C CNN
F 3 "" H 2350 3150 50  0001 C CNN
	1    2350 3150
	1    0    0    -1  
$EndComp
$Comp
L power:GND #PWR0104
U 1 1 626DC41F
P 2300 3550
F 0 "#PWR0104" H 2300 3300 50  0001 C CNN
F 1 "GND" H 2450 3500 50  0000 C CNN
F 2 "" H 2300 3550 50  0001 C CNN
F 3 "" H 2300 3550 50  0001 C CNN
	1    2300 3550
	1    0    0    -1  
$EndComp
Wire Wire Line
	2250 3300 2300 3300
Wire Wire Line
	1800 2850 1800 3000
Wire Wire Line
	2300 3500 2300 3550
Wire Wire Line
	2250 2950 2300 2950
Wire Wire Line
	2300 3150 2350 3150
Wire Wire Line
	2300 3300 2800 3300
Wire Wire Line
	2800 3300 2800 3800
Wire Wire Line
	2800 3800 3800 3800
Connection ~ 2300 3300
Wire Wire Line
	3800 3650 2950 3650
Wire Wire Line
	2950 3650 2950 3250
Wire Wire Line
	2950 3250 2600 3250
Wire Wire Line
	2600 3250 2600 2950
Wire Wire Line
	2600 2950 2300 2950
Connection ~ 2300 2950
Wire Wire Line
	1800 3100 1950 3100
Wire Wire Line
	1950 3100 1950 2950
$EndSCHEMATC
